<svg version="1.1" xmlns="http://www.w3.org/2000/svg" viewBox="0 0 960 960"><title>save</title><path d="M950.2,266.1L902.1,218c-6.4-6.4-13.8-9.6-22.1-9.6s-15.7,3.2-22.1,9.6L480,595.9L102.1,218c-6.4-6.4-13.8-9.6-22.1-9.6
	s-15.7,3.2-22.1,9.6L9.8,266.1c-6.4,6.4-9.6,13.8-9.6,22.1c0,8.3,3.2,15.7,9.6,22.1l448.1,448.1c6.4,6.4,13.8,9.6,22.1,9.6
	c8.3,0,15.7-3.2,22.1-9.6l448.1-448.1c6.4-6.4,9.6-13.8,9.6-22.1C959.8,279.9,956.6,272.5,950.2,266.1z"/></svg>
